"id","name","model_id:id","group_id:id","perm_read","perm_write","perm_create","perm_unlink"
"access_condominio_torre_group","condominio.torre.user","model_condominio_torre","condominio.group_condominio_user",1,1,1,0
"access_product_category","product.category.user","product.model_product_category","condominio.group_condominio_user",1,1,1,0
"access_condominio_room_type","condominio.room_type.user","model_condominio_room_type","condominio.group_condominio_user",1,1,1,0
"access_condominio_room_rent","condominio.room_rent.user","model_room_rent","condominio.group_condominio_user",1,1,1,0
"access_product_product","product.product.user","product.model_product_product","condominio.group_condominio_user",1,1,1,0
"access_condominio_room","condominio.room.user","model_condominio_room","condominio.group_condominio_user",1,1,1,0
"acess_condominio_service_type","condominio.service_type.user","model_condominio_service_type","condominio.group_condominio_user",1,1,1,0
"access_condominio_services","condominio.sevices.user","model_condominio_services","condominio.group_condominio_user",1,1,1,0
"access_condominio_order_user","condominio.order.user","sale.model_sale_order","condominio.group_condominio_user",1,1,1,0
"access_condominio_order_line_user","condominio.order.line.user","sale.model_sale_order_line","condominio.group_condominio_user",1,1,1,0
"access_condominio_invoice_user","account.invoice.user","account.model_account_invoice","condominio.group_condominio_user",1,1,1,0
"access_condominio_torre_group_manager","condominio.torre.manager","model_condominio_torre","condominio.group_condominio_manager",1,1,1,1
"access_product_category_manager","product.category.manager","product.model_product_category","condominio.group_condominio_manager",1,1,1,1
"access_condominio_room_type_manager","condominio.room_type.manager","model_condominio_room_type","condominio.group_condominio_manager",1,1,1,1
"access_condominio_room_rent_manager","condominio.room_rent.manager","model_room_rent","condominio.group_condominio_manager",1,1,1,1
"access_product_product_manager","product.product.manager","product.model_product_product","condominio.group_condominio_manager",1,1,1,1
"access_condominio_room_manager","condominio.room.manager","model_condominio_room","condominio.group_condominio_manager",1,1,1,1
"acess_condominio_service_type_manager","condominio.service_type.manager","model_condominio_service_type","condominio.group_condominio_manager",1,1,1,1
"access_condominio_services_manager","condominio.sevices.manager","model_condominio_services","condominio.group_condominio_manager",1,1,1,1
"access_condominio_order_manager_manager","condominio.order.manager","sale.model_sale_order","condominio.group_condominio_manager",1,1,1,1
"access_condominio_order_line_manager","condominio.order.line.manager","sale.model_sale_order_line","condominio.group_condominio_manager",1,1,1,0
"access_condominio_invoice_manager","account.invoice.manager","account.model_account_invoice","condominio.group_condominio_manager",1,1,1,1